{
  "company": {
    "name": "TC Mi Canal",
    "logo": "logo-tc.png",
    "url": "http://www.tctelevision.com",
    "email": "info@elnoticiero.com.ec",
    "phone": "+593 4 6003030"
  },
  "links": [
    {
      "name": "Suscríbete",
      "url": "http://www.elnoticiero.com.ec/suscribete/"
    },
    {
      "name": "Videoteca",
      "url": "http://www.elnoticiero.com.ec/videoteca/"
    }
  ],
  "socialMedia": [
    {
      "name": "Facebook",
      "class": "facebook",
      "url": "https://www.facebook.com/elnoticierotc"
    },
    {
      "name": "Instagram",
      "class": "instagram",
      "url": "https://www.instagram.com/elnoticierotc"
    },
    {
      "name": "Twitter",
      "class": "twitter",
      "url": "https://www.twitter.com/elnoticierotc"
    }
  ],
  "copyYear" : "2016"
}